3952209.4206616031 47528.8682897256 5002034.0587621722
2805270.4833320333 1516804.0920192606 5528551.5259811673
3985173.9885371011 -1112.8705467649 4974310.4520146754
4408411.8821375975 652078.3366299584 4561838.7969775908
5230308.3153872704 -647298.1406244022 3595363.5095750703
4382797.2950526914 -193732.9607747508 4634988.8909437815
4347573.9599067885 -181533.2268047325 4669368.1946736937
4266706.4902773686 820865.8941992960 4674906.6833388628
4136006.3900383953 722741.3320702430 4807104.9102310939
4420416.7712791683 1814297.1084706627 4230569.5635001501
